week12
…
## 
##   : 'dplyr'

## The following objects are masked from 'package:stats':
## 
##     filter, lag

## The following objects are masked from 'package:base':
## 
##     intersect, setdiff, setequal, union

# corpus -> tibble 
tidy(data_corpus_inaugural)

## # A tibble: 59 x 5
##    text                                   Year President  FirstName Party       
##    <chr>                                 <int> <chr>      <chr>     <fct>       
##  1 "Fellow-Citizens of the Senate and o~  1789 Washington George    none        
##  2 "Fellow citizens, I am again called ~  1793 Washington George    none        
##  3 "When it was first perceived, in ear~  1797 Adams      John      Federalist  
##  4 "Friends and Fellow Citizens:\n\nCal~  1801 Jefferson  Thomas    Democratic-~
##  5 "Proceeding, fellow citizens, to tha~  1805 Jefferson  Thomas    Democratic-~
##  6 "Unwilling to depart from examples o~  1809 Madison    James     Democratic-~
##  7 "About to add the solemnity of an oa~  1813 Madison    James     Democratic-~
##  8 "I should be destitute of feeling if~  1817 Monroe     James     Democratic-~
##  9 "Fellow citizens, I shall not attemp~  1821 Monroe     James     Democratic-~
## 10 "In compliance with an usage coeval ~  1825 Adams      John Qui~ Democratic-~
## # ... with 49 more rows
…
Docs(address.dtm)

## [1] "1" "2" "3" "4" "5"

row.names(address.dtm) <- c("Clinton", "Bush", "Obama", "Trump", "Biden")
Docs(address.dtm)

## [1] "Clinton" "Bush"    "Obama"   "Trump"   "Biden"

address.tf <- tidy(address.dtm) # tidytext
address.tf

## # A tibble: 4,185 x 3
##    document term         count
##    <chr>    <chr>        <dbl>
##  1 Clinton  abiding          1
##  2 Clinton  able             1
##  3 Clinton  abolished        1
##  4 Clinton  abroad           1
##  5 Clinton  achievement      1
##  6 Clinton  achievements     1
##  7 Clinton  acrimony         1
##  8 Clinton  across           6
##  9 Clinton  act              2
## 10 Clinton  advance          2
## # ... with 4,175 more rows

address.tf <- address.tf %>% 
  mutate(document = factor(document, levels = c("Clinton", "Bush", "Obama", "Trump", "Biden"))) %>%
  arrange(desc(count)) %>%  # count 
  group_by(document) %>%
  top_n(n = 10, wt = count) %>% # document( )  10 
  ungroup()
address.tf

## # A tibble: 63 x 3
##    document term    count
##    <fct>    <chr>   <dbl>
##  1 Clinton  america    56
##  2 Bush     america    39
##  3 Clinton  new        38
##  4 Biden    america    36
##  5 Trump    america    33
##  6 Bush     freedom    30
##  7 Obama    america    29
##  8 Clinton  world      28
##  9 Clinton  people     23
## 10 Clinton  century    21
## # ... with 53 more rows
…
