week14
…
week14

library(textdata)

## Warning:  'textdata' R  4.1.3 

library(tidytext)

## Warning:  'tidytext' R  4.1.3 

# Bing :   
get_sentiments(lexicon = 'bing')

## # A tibble: 6,786 x 2
##    word        sentiment
##    <chr>       <chr>    
##  1 2-faces     negative 
##  2 abnormal    negative 
##  3 abolish     negative 
##  4 abominable  negative 
##  5 abominably  negative 
##  6 abominate   negative 
##  7 abomination negative 
##  8 abort       negative 
##  9 aborted     negative 
## 10 aborts      negative 
## # ... with 6,776 more rows

unique(get_sentiments(lexicon = 'bing')$sentiment)

## [1] "negative" "positive"

# AFINN : -5() ~ +5()
get_sentiments(lexicon = 'afinn')

## # A tibble: 2,477 x 2
##    word       value
##    <chr>      <dbl>
##  1 abandon       -2
##  2 abandoned     -2
##  3 abandons      -2
##  4 abducted      -2
##  5 abduction     -2
##  6 abductions    -2
##  7 abhor         -3
##  8 abhorred      -3
##  9 abhorrent     -3
## 10 abhors        -3
## # ... with 2,467 more rows

unique(get_sentiments('afinn')$value)

##  [1] -2 -3  2  1 -1  3  4 -4 -5  5  0

summary((get_sentiments('afinn')$value))

##    Min. 1st Qu.  Median    Mean 3rd Qu.    Max. 
## -5.0000 -2.0000 -2.0000 -0.5894  2.0000  5.0000

# NRC : 10  
get_sentiments(lexicon = 'nrc')

## # A tibble: 13,872 x 2
##    word        sentiment
##    <chr>       <chr>    
##  1 abacus      trust    
##  2 abandon     fear     
##  3 abandon     negative 
##  4 abandon     sadness  
##  5 abandoned   anger    
##  6 abandoned   fear     
##  7 abandoned   negative 
##  8 abandoned   sadness  
##  9 abandonment anger    
## 10 abandonment fear     
## # ... with 13,862 more rows

unique(get_sentiments(lexicon = 'nrc')$sentiment)

##  [1] "trust"        "fear"         "negative"     "sadness"      "anger"       
##  [6] "surprise"     "positive"     "disgust"      "joy"          "anticipation"

# Loughran : 6  
get_sentiments(lexicon = 'loughran')

## # A tibble: 4,150 x 2
##    word         sentiment
##    <chr>        <chr>    
##  1 abandon      negative 
##  2 abandoned    negative 
##  3 abandoning   negative 
##  4 abandonment  negative 
##  5 abandonments negative 
##  6 abandons     negative 
##  7 abdicated    negative 
##  8 abdicates    negative 
##  9 abdicating   negative 
## 10 abdication   negative 
## # ... with 4,140 more rows
…
# map() :   
map(unzip(zipfile = local.copy,
          files = c("Health-Tweets/bbchealth.txt", # 4  
                    "Health-Tweets/cnnhealth.txt", 
                    "Health-Tweets/foxnewshealth.txt", 
                    "Health-Tweets/NBChealth.txt")), 
    read_delim, delim = "|", quote ="", # read_delim() :  .   .  
    col_types = list(col_character(), col_character(), col_character()), 
    col_names = c("id","datetime","tweet"))

## Warning: One or more parsing issues, see `problems()` for details

## [[1]]
## # A tibble: 3,929 x 3
##    id                 datetime                       tweet                      
##    <chr>              <chr>                          <chr>                      
##  1 585978391360221184 Thu Apr 09 01:31:50 +0000 2015 Breast cancer risk test de~
##  2 585947808772960257 Wed Apr 08 23:30:18 +0000 2015 GP workload harming care -~
##  3 585947807816650752 Wed Apr 08 23:30:18 +0000 2015 Short people's 'heart risk~
##  4 585866060991078401 Wed Apr 08 18:05:28 +0000 2015 New approach against HIV '~
##  5 585794106170839041 Wed Apr 08 13:19:33 +0000 2015 Coalition 'undermined NHS'~
##  6 585733482413891584 Wed Apr 08 09:18:39 +0000 2015 Review of case against NHS~
##  7 585733481608646657 Wed Apr 08 09:18:39 +0000 2015 VIDEO: 'All day is empty, ~
##  8 585701601131765761 Wed Apr 08 07:11:58 +0000 2015 VIDEO: 'Overhaul needed' f~
##  9 585620828110397440 Wed Apr 08 01:51:00 +0000 2015 Care for dying 'needs over~
## 10 585437294120677376 Tue Apr 07 13:41:42 +0000 2015 VIDEO: NHS: Labour and Tor~
## # ... with 3,919 more rows
## 
## [[2]]
## # A tibble: 4,061 x 3
##    id                 datetime                       tweet                      
##    <chr>              <chr>                          <chr>                      
##  1 576880531301801984 Sat Mar 14 23:00:11 +0000 2015 An abundance of online inf~
##  2 576820122666471424 Sat Mar 14 19:00:08 +0000 2015 A plant-based diet that in~
##  3 576744652717461504 Sat Mar 14 14:00:15 +0000 2015 It doesn't take much to da~
##  4 576736754436304896 Sat Mar 14 13:28:52 +0000 2015 RT @CNN: Forever young? Di~
##  5 576736614766010368 Sat Mar 14 13:28:18 +0000 2015 RT @CNN: Is post-traumatic~
##  6 576548368740052992 Sat Mar 14 01:00:17 +0000 2015 Maysoon Zayid, a touring s~
##  7 576518190286536704 Fri Mar 13 23:00:22 +0000 2015 How women can wipe out Alz~
##  8 576494177971732480 Fri Mar 13 21:24:57 +0000 2015 RT @CNNOpinion: Women can ~
##  9 576472874946433024 Fri Mar 13 20:00:18 +0000 2015 Is it time to raise the le~
## 10 576464606551490560 Fri Mar 13 19:27:27 +0000 2015 CDC: Misuse of garments ma~
## # ... with 4,051 more rows
## 
## [[3]]
## # A tibble: 2,000 x 3
##    id                 datetime                       tweet                      
##    <chr>              <chr>                          <chr>                      
##  1 585942799561928704 Wed Apr 08 23:10:24 +0000 2015 Injury prevention programs~
##  2 585934004089683969 Wed Apr 08 22:35:27 +0000 2015 6 dietary changes to make ~
##  3 585926494054195201 Wed Apr 08 22:05:36 +0000 2015 Massachusetts governor get~
##  4 585921515922788354 Wed Apr 08 21:45:49 +0000 2015 Dad wins 3 marathons in 8 ~
##  5 585915150449934338 Wed Apr 08 21:20:32 +0000 2015 Possible cure for melanoma~
##  6 585907587335487490 Wed Apr 08 20:50:29 +0000 2015 Wear orange glasses to get~
##  7 585896210034270208 Wed Apr 08 20:05:16 +0000 2015 Utah girl, 17, has rare al~
##  8 585891135773630464 Wed Apr 08 19:45:06 +0000 2015 Higher purpose in life tie~
##  9 585884914232459264 Wed Apr 08 19:20:23 +0000 2015 Kids may be more likely to~
## 10 585879847223820288 Wed Apr 08 19:00:15 +0000 2015 Marijuana harvested for me~
## # ... with 1,990 more rows
## 
## [[4]]
## # A tibble: 4,215 x 3
##    id                 datetime                       tweet                      
##    <chr>              <chr>                          <chr>                      
##  1 548617649010532353 Fri Dec 26 23:13:35 +0000 2014 Ebola Exposure?: CDC Worke~
##  2 548569476795731968 Fri Dec 26 20:02:09 +0000 2014 Pregnant Woman Taken Off L~
##  3 548533428023738368 Fri Dec 26 17:38:55 +0000 2014 Money from #IceBucketChall~
##  4 548531135442337793 Fri Dec 26 17:29:48 +0000 2014 Caramel Apples Recalled Af~
##  5 548194819907284992 Thu Dec 25 19:13:24 +0000 2014 Ice Bucket Challenge Still~
##  6 547900379254775808 Wed Dec 24 23:43:24 +0000 2014 Following mistake and poss~
##  7 547881124211339264 Wed Dec 24 22:26:53 +0000 2014 CDC Reports Possible Ebola~
##  8 547809354834259968 Wed Dec 24 17:41:42 +0000 2014 Why Stress-Fueled Indulgen~
##  9 547755597844987904 Wed Dec 24 14:08:05 +0000 2014 Delayed Concussions? 'Comm~
## 10 547537442690318336 Tue Dec 23 23:41:13 +0000 2014 Gay Groups Decry FDA Rule ~
## # ... with 4,205 more rows
…
## Warning: One or more parsing issues, see `problems()` for details

health.twitter

## # A tibble: 14,205 x 4
##    id                 datetime            tweet                           source
##    <chr>              <dttm>              <chr>                           <chr> 
##  1 585978391360221184 2015-04-09 01:31:50 Breast cancer risk test devise~ bbc   
##  2 585947808772960257 2015-04-08 23:30:18 GP workload harming care - BMA~ bbc   
##  3 585947807816650752 2015-04-08 23:30:18 Short people's 'heart risk gre~ bbc   
##  4 585866060991078401 2015-04-08 18:05:28 New approach against HIV 'prom~ bbc   
##  5 585794106170839041 2015-04-08 13:19:33 Coalition 'undermined NHS' - d~ bbc   
##  6 585733482413891584 2015-04-08 09:18:39 Review of case against NHS man~ bbc   
##  7 585733481608646657 2015-04-08 09:18:39 VIDEO: 'All day is empty, what~ bbc   
##  8 585701601131765761 2015-04-08 07:11:58 VIDEO: 'Overhaul needed' for e~ bbc   
##  9 585620828110397440 2015-04-08 01:51:00 Care for dying 'needs overhaul~ bbc   
## 10 585437294120677376 2015-04-07 13:41:42 VIDEO: NHS: Labour and Tory ke~ bbc   
## # ... with 14,195 more rows

14-2

#     csv  
health.twitter <- read.csv("../data/health.twitter.csv") %>% as.tibble()

## Warning: `as.tibble()` was deprecated in tibble 2.0.0.
## Please use `as_tibble()` instead.
## The signature and semantics have changed, see `?as_tibble`.
## This warning is displayed once every 8 hours.
## Call `lifecycle::last_lifecycle_warnings()` to see where this warning was generated.

health.twitter

## # A tibble: 14,205 x 5
##        X      id datetime                       tweet                     source
##    <int>   <dbl> <chr>                          <chr>                     <chr> 
##  1     1 5.86e17 Thu Apr 09 01:31:50 +0000 2015 Breast cancer risk test ~ bbc   
##  2     2 5.86e17 Wed Apr 08 23:30:18 +0000 2015 GP workload harming care~ bbc   
##  3     3 5.86e17 Wed Apr 08 23:30:18 +0000 2015 Short people's 'heart ri~ bbc   
##  4     4 5.86e17 Wed Apr 08 18:05:28 +0000 2015 New approach against HIV~ bbc   
##  5     5 5.86e17 Wed Apr 08 13:19:33 +0000 2015 Coalition 'undermined NH~ bbc   
##  6     6 5.86e17 Wed Apr 08 09:18:39 +0000 2015 Review of case against N~ bbc   
##  7     7 5.86e17 Wed Apr 08 09:18:39 +0000 2015 VIDEO: 'All day is empty~ bbc   
##  8     8 5.86e17 Wed Apr 08 07:11:58 +0000 2015 VIDEO: 'Overhaul needed'~ bbc   
##  9     9 5.86e17 Wed Apr 08 01:51:00 +0000 2015 Care for dying 'needs ov~ bbc   
## 10    10 5.85e17 Tue Apr 07 13:41:42 +0000 2015 VIDEO: NHS: Labour and T~ bbc   
## # ... with 14,195 more rows
…
## Warning:  'stringr' R  4.1.3 

health.words <- health.twitter %>% 
  select(-id, -X) %>% # id,X
  mutate(tweet = str_replace_all(tweet, pattern = "(f|ht)tp\\S+\\s*", replacement = "")) %>%  #url
  mutate(tweet = str_replace_all(tweet, pattern = "\\d+", replacement = "")) %>%  # 
  mutate(tweet = str_replace_all(tweet, pattern = "\\bRT", replacement = "")) %>% # 
  mutate(tweet = str_replace_all(tweet, pattern = "@\\S+", replacement = "")) %>%  # 
  mutate(tweet = str_replace_all(tweet, pattern = "&amp", replacement ="")) %>% 
  unnest_tokens(word, tweet) # 
health.words

## # A tibble: 124,918 x 3
##    datetime                       source word    
##    <chr>                          <chr>  <chr>   
##  1 Thu Apr 09 01:31:50 +0000 2015 bbc    breast  
##  2 Thu Apr 09 01:31:50 +0000 2015 bbc    cancer  
##  3 Thu Apr 09 01:31:50 +0000 2015 bbc    risk    
##  4 Thu Apr 09 01:31:50 +0000 2015 bbc    test    
##  5 Thu Apr 09 01:31:50 +0000 2015 bbc    devised 
##  6 Wed Apr 08 23:30:18 +0000 2015 bbc    gp      
##  7 Wed Apr 08 23:30:18 +0000 2015 bbc    workload
##  8 Wed Apr 08 23:30:18 +0000 2015 bbc    harming 
##  9 Wed Apr 08 23:30:18 +0000 2015 bbc    care    
## 10 Wed Apr 08 23:30:18 +0000 2015 bbc    bma     
## # ... with 124,908 more rows

#  
health.words %>% 
  inner_join(get_sentiments("bing"), by = "word")

## # A tibble: 12,510 x 4
##    datetime                       source word       sentiment
##    <chr>                          <chr>  <chr>      <chr>    
##  1 Thu Apr 09 01:31:50 +0000 2015 bbc    cancer     negative 
##  2 Thu Apr 09 01:31:50 +0000 2015 bbc    risk       negative 
##  3 Wed Apr 08 23:30:18 +0000 2015 bbc    risk       negative 
##  4 Wed Apr 08 18:05:28 +0000 2015 bbc    promising  positive 
##  5 Wed Apr 08 13:19:33 +0000 2015 bbc    undermined negative 
##  6 Wed Apr 08 01:51:00 +0000 2015 bbc    dying      negative 
##  7 Tue Apr 07 13:41:42 +0000 2015 bbc    worse      negative 
##  8 Tue Apr 07 09:38:39 +0000 2015 bbc    worst      negative 
##  9 Tue Apr 07 00:04:09 +0000 2015 bbc    strenuous  negative 
## 10 Tue Apr 07 00:04:09 +0000 2015 bbc    bad        negative 
## # ... with 12,500 more rows

# 
health.words %>% 
  inner_join(get_sentiments("bing"), by = "word") %>% 
  count(word, sentiment, sort = TRUE)

## # A tibble: 1,456 x 3
##    word     sentiment     n
##    <chr>    <chr>     <int>
##  1 cancer   negative    701
##  2 risk     negative    317
##  3 work     positive    210
##  4 death    negative    193
##  5 outbreak negative    188
##  6 healthy  positive    158
##  7 patient  positive    155
##  8 virus    negative    147
##  9 like     positive    139
## 10 good     positive    138
## # ... with 1,446 more rows
…
#        

#      
health.sentiment <- health.words %>% 
  inner_join(get_sentiments("bing"), by="word") %>% 
  filter(!(word == "patient"|word == "cancer"|word == "virus")) %>%
  count(word, sentiment, source, ,sort = TRUE) %>%
  group_by(source, sentiment) %>% 
  top_n(10, n) %>% 
  ungroup()

health.sentiment

## # A tibble: 86 x 4
##    word     sentiment source      n
##    <chr>    <chr>     <chr>   <int>
##  1 work     positive  nbc       118
##  2 risk     negative  nbc       101
##  3 healthy  positive  cnn        92
##  4 risk     negative  bbc        89
##  5 like     positive  cnn        81
##  6 outbreak negative  nbc        77
##  7 death    negative  bbc        72
##  8 good     positive  cnn        67
##  9 risk     negative  foxnews    66
## 10 lost     negative  cnn        64
## # ... with 76 more rows
…
