week13
…
#     ?
address.tf <- tidy(address.dtm) # tidytext
address.tf

## # A tibble: 4,195 x 3
##    document term         count
##    <chr>    <chr>        <dbl>
##  1 Clinton  abiding          1
##  2 Clinton  able             1
##  3 Clinton  abolished        1
##  4 Clinton  abroad           1
##  5 Clinton  achievement      1
##  6 Clinton  achievements     1
##  7 Clinton  acrimony         1
##  8 Clinton  across           6
##  9 Clinton  act              2
## 10 Clinton  advance          2
## # ... with 4,185 more rows

address.tf <- address.tf %>% 
  mutate(document = factor(document, levels = c("Clinton", "Bush", "Obama", "Trump", "Biden"))) %>%
  arrange(desc(count)) %>%  # count 
  group_by(document) %>%
  top_n(n = 10, wt = count) %>% # document( )  10 
  ungroup()
address.tf

## # A tibble: 65 x 3
##    document term    count
##    <fct>    <chr>   <dbl>
##  1 Clinton  new        38
##  2 Bush     freedom    30
##  3 Clinton  world      28
##  4 Clinton  america    26
##  5 Clinton  people     23
##  6 Clinton  century    21
##  7 Bush     america    20
##  8 Clinton  time       19
##  9 Clinton  let        18
## 10 Clinton  nation     18
## # ... with 55 more rows
…
## [1] "1" "2" "3" "4" "5"

row.names(address.dtm2) <- c("Clinton", "Bush", "Obama", "Trump", "Biden")
Docs(address.dtm2)

## [1] "Clinton" "Bush"    "Obama"   "Trump"   "Biden"

address.tfidf <- address.dtm2 # tidytext.

address.tfidf <- tidy(address.dtm2) %>% 
  mutate(tf_idf = count, count = NULL)
address.tfidf

## # A tibble: 3,815 x 3
##    document term           tf_idf
##    <chr>    <chr>           <dbl>
##  1 Clinton  abiding      0.00127 
##  2 Clinton  able         0.00127 
##  3 Clinton  abolished    0.00127 
##  4 Clinton  abroad       0.000722
##  5 Clinton  achievement  0.000722
##  6 Clinton  achievements 0.000722
##  7 Clinton  acrimony     0.00127 
##  8 Clinton  act          0.000351
##  9 Clinton  advance      0.000805
## 10 Clinton  advantage    0.00127 
## # ... with 3,805 more rows

# => tfidf 

address.tfidf <- address.tfidf %>% 
  mutate(document = factor(document, levels = c("Clinton", "Bush", "Obama", "Trump", "Biden"))) %>%
  arrange(desc(tf_idf)) %>% 
  group_by(document) %>%
  top_n(n = 10, wt = tf_idf) %>%
  ungroup()
address.tfidf

## # A tibble: 78 x 3
##    document term       tf_idf
##    <fct>    <chr>       <dbl>
##  1 Trump    protected 0.0164 
##  2 Bush     freedom   0.0124 
##  3 Biden    story     0.0111 
##  4 Trump    countries 0.00987
##  5 Trump    obama     0.00987
##  6 Trump    dreams    0.00936
##  7 Biden    virus     0.00867
##  8 Clinton  century   0.00845
##  9 Biden    days      0.00741
## 10 Bush     story     0.00668
## # ... with 68 more rows
…
# tidy text

#   
address.words <- us.president.address %>% 
  unnest_tokens(output = word, input = text)
address.words

## # A tibble: 11,986 x 5
##    President FirstName Year      Party                 word         
##    <chr>     <chr>     <chr>     <chr>                 <chr>        
##  1 Bush      George W. 2001 2005 Republican Republican president    
##  2 Bush      George W. 2001 2005 Republican Republican clinton      
##  3 Bush      George W. 2001 2005 Republican Republican distinguished
##  4 Bush      George W. 2001 2005 Republican Republican guests       
##  5 Bush      George W. 2001 2005 Republican Republican and          
##  6 Bush      George W. 2001 2005 Republican Republican my           
##  7 Bush      George W. 2001 2005 Republican Republican fellow       
##  8 Bush      George W. 2001 2005 Republican Republican citizens     
##  9 Bush      George W. 2001 2005 Republican Republican the          
## 10 Bush      George W. 2001 2005 Republican Republican peaceful     
## # ... with 11,976 more rows

# 
address.words <- address.words %>% 
  anti_join(stop_words, by="word") %>% #
  filter(!grepl(patter = "\\d+", word)) %>%  #
  mutate(word = gsub(pattern = "'", replacement ="",word)) %>% #
  mutate(word = gsub(pattern = "america|americas|american|americans",
                     replacement = "america", word)) %>% # 
  count(President, word, sort = TRUE, name =  'count') %>% #   
  ungroup()
address.words

## # A tibble: 2,743 x 3
##    President word    count
##    <chr>     <chr>   <int>
##  1 Bush      america    50
##  2 Biden     america    38
##  3 Obama     america    34
##  4 Trump     america    34
##  5 Bush      freedom    30
##  6 Obama     nation     18
##  7 Obama     people     18
##  8 Bush      country    17
##  9 Bush      nation     17
## 10 Bush      liberty    16
## # ... with 2,733 more rows
…
# tf-idf - bind_tf_idf() 
address.words <- address.words %>% 
  bind_tf_idf(term = word, document = President, n = count)
address.words

## # A tibble: 2,743 x 6
##    President word    count     tf   idf  tf_idf
##    <chr>     <chr>   <int>  <dbl> <dbl>   <dbl>
##  1 Bush      america    50 0.0351 0     0      
##  2 Biden     america    38 0.0473 0     0      
##  3 Obama     america    34 0.0199 0     0      
##  4 Trump     america    34 0.0638 0     0      
##  5 Bush      freedom    30 0.0211 0.693 0.0146 
##  6 Obama     nation     18 0.0105 0     0      
##  7 Obama     people     18 0.0105 0     0      
##  8 Bush      country    17 0.0119 0     0      
##  9 Bush      nation     17 0.0119 0     0      
## 10 Bush      liberty    16 0.0112 0.288 0.00323
## # ... with 2,733 more rows
…
